{
   "status":1,
   "message":{
      "current_page":1,
      "data":[
         {"id":3,"name":"Hiram Crooks","email":"hodkiewicz.ella@example.org","email_verified_at":"2022-01-05T15:06:40.000000Z","current_team_id":null,"cvpath":null,"coverletterpath":null,"jobs":"Web developer","profile_photo_path":null,"created_at":"2022-01-05T15:06:40.000000Z","updated_at":"2022-01-05T15:06:40.000000Z","relevance":70,"profile_photo_url":"https:\/\/ui-avatars.com\/api\/?name=Hiram+Crooks&color=7F9CF5&background=EBF4FF"},
         {"id":8,"name":"Jon Bogisich","email":"gabriel29@example.net","email_verified_at":"2022-01-05T15:06:40.000000Z","current_team_id":null,"cvpath":null,"coverletterpath":null,"jobs":"Web developer","profile_photo_path":null,"created_at":"2022-01-05T15:06:40.000000Z","updated_at":"2022-01-05T15:06:40.000000Z","relevance":70,"profile_photo_url":"https:\/\/ui-avatars.com\/api\/?name=Jon+Bogisich&color=7F9CF5&background=EBF4FF"},
         {"id":10,"name":"Hank Goyette","email":"ewunsch@example.org","email_verified_at":"2022-01-05T15:06:40.000000Z","current_team_id":null,"cvpath":null,"coverletterpath":null,"jobs":"Web developer","profile_photo_path":null,"created_at":"2022-01-05T15:06:40.000000Z","updated_at":"2022-01-05T15:06:40.000000Z","relevance":70,"profile_photo_url":"https:\/\/ui-avatars.com\/api\/?name=Hank+Goyette&color=7F9CF5&background=EBF4FF"},
         {"id":18,"name":"Susanna Rice","email":"braun.katheryn@example.org","email_verified_at":"2022-01-05T15:06:40.000000Z","current_team_id":null,"cvpath":null,"coverletterpath":null,"jobs":"Web developer","profile_photo_path":null,"created_at":"2022-01-05T15:06:40.000000Z","updated_at":"2022-01-05T15:06:40.000000Z","relevance":70,"profile_photo_url":"https:\/\/ui-avatars.com\/api\/?name=Susanna+Rice&color=7F9CF5&background=EBF4FF"},
         {"id":34,"name":"Braxton Johns","email":"jerde.lia@example.com","email_verified_at":"2022-01-05T15:06:40.000000Z","current_team_id":null,"cvpath":null,"coverletterpath":null,"jobs":"Web developer","profile_photo_path":null,"created_at":"2022-01-05T15:06:40.000000Z","updated_at":"2022-01-05T15:06:40.000000Z","relevance":70,"profile_photo_url":"https:\/\/ui-avatars.com\/api\/?name=Braxton+Johns&color=7F9CF5&background=EBF4FF"},
         {"id":37,"name":"Prof. Clint Pollich DDS","email":"elenor81@example.org","email_verified_at":"2022-01-05T15:06:40.000000Z","current_team_id":null,"cvpath":null,"coverletterpath":null,"jobs":"Web developer","profile_photo_path":null,"created_at":"2022-01-05T15:06:40.000000Z","updated_at":"2022-01-05T15:06:40.000000Z","relevance":70,"profile_photo_url":"https:\/\/ui-avatars.com\/api\/?name=Prof.+Clint+Pollich+DDS&color=7F9CF5&background=EBF4FF"},
         {"id":44,"name":"Lawson Prohaska","email":"deborah70@example.net","email_verified_at":"2022-01-05T15:06:40.000000Z","current_team_id":null,"cvpath":null,"coverletterpath":null,"jobs":"Web developer","profile_photo_path":null,"created_at":"2022-01-05T15:06:40.000000Z","updated_at":"2022-01-05T15:06:40.000000Z","relevance":70,"profile_photo_url":"https:\/\/ui-avatars.com\/api\/?name=Lawson+Prohaska&color=7F9CF5&background=EBF4FF"},
         {"id":49,"name":"Dr. Annette Streich","email":"cmante@example.net","email_verified_at":"2022-01-05T15:06:40.000000Z","current_team_id":null,"cvpath":null,"coverletterpath":null,"jobs":"Web developer","profile_photo_path":null,"created_at":"2022-01-05T15:06:40.000000Z","updated_at":"2022-01-05T15:06:40.000000Z","relevance":70,"profile_photo_url":"https:\/\/ui-avatars.com\/api\/?name=Dr.+Annette+Streich&color=7F9CF5&background=EBF4FF"},
         {"id":54,"name":"Evelyn Luettgen IV","email":"mrunolfsson@example.com","email_verified_at":"2022-01-05T15:06:40.000000Z","current_team_id":null,"cvpath":null,"coverletterpath":null,"jobs":"Web developer","profile_photo_path":null,"created_at":"2022-01-05T15:06:40.000000Z","updated_at":"2022-01-05T15:06:40.000000Z","relevance":70,"profile_photo_url":"https:\/\/ui-avatars.com\/api\/?name=Evelyn+Luettgen+IV&color=7F9CF5&background=EBF4FF"},
         {"id":55,"name":"Cody Schoen","email":"mgutkowski@example.net","email_verified_at":"2022-01-05T15:06:40.000000Z","current_team_id":null,"cvpath":null,"coverletterpath":null,"jobs":"Web developer","profile_photo_path":null,"created_at":"2022-01-05T15:06:40.000000Z","updated_at":"2022-01-05T15:06:40.000000Z","relevance":70,"profile_photo_url":"https:\/\/ui-avatars.com\/api\/?name=Cody+Schoen&color=7F9CF5&background=EBF4FF"},
         {"id":64,"name":"Claire Bauch III","email":"kabbott@example.net","email_verified_at":"2022-01-05T15:06:40.000000Z","current_team_id":null,"cvpath":null,"coverletterpath":null,"jobs":"Web developer","profile_photo_path":null,"created_at":"2022-01-05T15:06:40.000000Z","updated_at":"2022-01-05T15:06:40.000000Z","relevance":70,"profile_photo_url":"https:\/\/ui-avatars.com\/api\/?name=Claire+Bauch+III&color=7F9CF5&background=EBF4FF"},
         {"id":72,"name":"Luciano Wilderman III","email":"whitney.kessler@example.com","email_verified_at":"2022-01-05T15:06:40.000000Z","current_team_id":null,"cvpath":null,"coverletterpath":null,"jobs":"Web developer","profile_photo_path":null,"created_at":"2022-01-05T15:06:40.000000Z","updated_at":"2022-01-05T15:06:40.000000Z","relevance":70,"profile_photo_url":"https:\/\/ui-avatars.com\/api\/?name=Luciano+Wilderman+III&color=7F9CF5&background=EBF4FF"},
         {"id":73,"name":"Lavern Runolfsdottir","email":"barton.clovis@example.org","email_verified_at":"2022-01-05T15:06:40.000000Z","current_team_id":null,"cvpath":null,"coverletterpath":null,"jobs":"Web developer","profile_photo_path":null,"created_at":"2022-01-05T15:06:40.000000Z","updated_at":"2022-01-05T15:06:40.000000Z","relevance":70,"profile_photo_url":"https:\/\/ui-avatars.com\/api\/?name=Lavern+Runolfsdottir&color=7F9CF5&background=EBF4FF"},
         {"id":74,"name":"Dr. Antone Boyer V","email":"stoltenberg.carmine@example.com","email_verified_at":"2022-01-05T15:06:40.000000Z","current_team_id":null,"cvpath":null,"coverletterpath":null,"jobs":"Web developer","profile_photo_path":null,"created_at":"2022-01-05T15:06:40.000000Z","updated_at":"2022-01-05T15:06:40.000000Z","relevance":70,"profile_photo_url":"https:\/\/ui-avatars.com\/api\/?name=Dr.+Antone+Boyer+V&color=7F9CF5&background=EBF4FF"},
         {"id":75,"name":"Moriah Ratke","email":"ullrich.tyrell@example.net","email_verified_at":"2022-01-05T15:06:40.000000Z","current_team_id":null,"cvpath":null,"coverletterpath":null,"jobs":"Web developer","profile_photo_path":null,"created_at":"2022-01-05T15:06:40.000000Z","updated_at":"2022-01-05T15:06:40.000000Z","relevance":70,"profile_photo_url":"https:\/\/ui-avatars.com\/api\/?name=Moriah+Ratke&color=7F9CF5&background=EBF4FF"},
         {"id":80,"name":"Melisa Dietrich I","email":"gpurdy@example.net","email_verified_at":"2022-01-05T15:06:40.000000Z","current_team_id":null,"cvpath":null,"coverletterpath":null,"jobs":"Web developer","profile_photo_path":null,"created_at":"2022-01-05T15:06:40.000000Z","updated_at":"2022-01-05T15:06:40.000000Z","relevance":70,"profile_photo_url":"https:\/\/ui-avatars.com\/api\/?name=Melisa+Dietrich+I&color=7F9CF5&background=EBF4FF"},
         {"id":100,"name":"David Rath I","email":"johann51@example.com","email_verified_at":"2022-01-05T15:06:40.000000Z","current_team_id":null,"cvpath":null,"coverletterpath":null,"jobs":"Web developer","profile_photo_path":null,"created_at":"2022-01-05T15:06:40.000000Z","updated_at":"2022-01-05T15:06:40.000000Z","relevance":70,"profile_photo_url":"https:\/\/ui-avatars.com\/api\/?name=David+Rath+I&color=7F9CF5&background=EBF4FF"},
         {"id":4,"name":"Dayton Ankunding","email":"dicki.guy@example.net","email_verified_at":"2022-01-05T15:06:40.000000Z","current_team_id":null,"cvpath":null,"coverletterpath":null,"jobs":"Web designer","profile_photo_path":null,"created_at":"2022-01-05T15:06:40.000000Z","updated_at":"2022-01-05T15:06:40.000000Z","relevance":60,"profile_photo_url":"https:\/\/ui-avatars.com\/api\/?name=Dayton+Ankunding&color=7F9CF5&background=EBF4FF"},
         {"id":14,"name":"Elizabeth Beer","email":"iwill@example.com","email_verified_at":"2022-01-05T15:06:40.000000Z","current_team_id":null,"cvpath":null,"coverletterpath":null,"jobs":"Web designer","profile_photo_path":null,"created_at":"2022-01-05T15:06:40.000000Z","updated_at":"2022-01-05T15:06:40.000000Z","relevance":60,"profile_photo_url":"https:\/\/ui-avatars.com\/api\/?name=Elizabeth+Beer&color=7F9CF5&background=EBF4FF"},
         {"id":17,"name":"Mr. Irving Zulauf","email":"prenner@example.net","email_verified_at":"2022-01-05T15:06:40.000000Z","current_team_id":null,"cvpath":null,"coverletterpath":null,"jobs":"Web designer","profile_photo_path":null,"created_at":"2022-01-05T15:06:40.000000Z","updated_at":"2022-01-05T15:06:40.000000Z","relevance":60,"profile_photo_url":"https:\/\/ui-avatars.com\/api\/?name=Mr.+Irving+Zulauf&color=7F9CF5&background=EBF4FF"}
         ],
      "first_page_url":"http:\/\/pentadcrown.test\/search?page=1","from":1,"last_page":3,"last_page_url":"http:\/\/pentadcrown.test\/search?page=3",
      "links":[
            {"url":null,"label":"&laquo; Previous","active":false},
            {"url":"http:\/\/pentadcrown.test\/search?page=1","label":"1","active":true},
            {"url":"http:\/\/pentadcrown.test\/search?page=2","label":"2","active":false},
            {"url":"http:\/\/pentadcrown.test\/search?page=3","label":"3","active":false},
            {"url":"http:\/\/pentadcrown.test\/search?page=2","label":"Next &raquo;","active":false}
            ],
            "next_page_url":"http:\/\/pentadcrown.test\/search?page=2","path":"http:\/\/pentadcrown.test\/search","per_page":20,"prev_page_url":null,"to":20,"total":56}
         }
